Date,Open,High,Low,Close,Adj Close,Volume
2019-03-21,12.480000,12.550000,12.390000,12.440000,12.440000,14933600
2019-03-22,12.300000,12.320000,12.110000,12.230000,12.230000,22739900
2019-03-25,12.180000,12.330000,12.080000,12.250000,12.250000,19662700
2019-03-26,12.490000,12.540000,12.400000,12.470000,12.470000,16381000
2019-03-27,12.490000,12.510000,12.220000,12.340000,12.340000,19128800
2019-03-28,12.150000,12.350000,12.140000,12.350000,12.350000,20701100
2019-03-29,12.560000,12.560000,12.420000,12.500000,12.500000,17631500
2019-04-01,12.620000,12.830000,12.580000,12.820000,12.820000,22855500
2019-04-02,12.880000,13.040000,12.850000,13.010000,13.010000,23211400
2019-04-03,13.000000,13.060000,12.900000,12.990000,12.990000,24302000
2019-04-04,12.980000,13.040000,12.860000,12.920000,12.920000,17376800
2019-04-05,12.980000,13.170000,12.970000,13.150000,13.150000,18759300
2019-04-08,13.230000,13.410000,13.230000,13.400000,13.400000,23859500
2019-04-09,13.350000,13.380000,13.240000,13.330000,13.330000,27393800
2019-04-10,13.380000,13.460000,13.330000,13.410000,13.410000,16866100
2019-04-11,13.340000,13.380000,13.180000,13.270000,13.270000,18878000
2019-04-12,13.360000,13.400000,13.280000,13.300000,13.300000,18541000
2019-04-15,13.230000,13.290000,13.140000,13.240000,13.240000,15836500
2019-04-16,13.230000,13.380000,13.130000,13.370000,13.370000,13449300
2019-04-17,13.380000,13.390000,13.260000,13.280000,13.280000,15459700
2019-04-18,13.300000,13.340000,13.230000,13.320000,13.320000,12393100
2019-04-22,13.610000,13.720000,13.600000,13.670000,13.670000,20381700
2019-04-23,13.720000,13.860000,13.710000,13.790000,13.790000,18523400
2019-04-24,13.810000,13.820000,13.660000,13.680000,13.680000,15033500
2019-04-25,13.690000,13.730000,13.500000,13.530000,13.530000,17562500
2019-04-26,13.380000,13.390000,12.960000,13.090000,13.090000,42154100
2019-04-29,13.150000,13.250000,13.050000,13.230000,13.230000,23410200
2019-04-30,13.350000,13.360000,13.180000,13.290000,13.290000,16771400
2019-05-01,13.280000,13.310000,13.060000,13.220000,13.220000,25771500
2019-05-02,12.920000,12.940000,12.690000,12.820000,12.820000,42308900
2019-05-03,12.870000,13.010000,12.850000,12.870000,12.870000,26193800
2019-05-06,12.790000,13.110000,12.790000,13.070000,13.070000,37932000
2019-05-07,12.780000,12.850000,12.630000,12.730000,12.730000,29944900
2019-05-08,12.780000,12.980000,12.750000,12.890000,12.890000,23150000
2019-05-09,12.820000,12.870000,12.680000,12.810000,12.810000,19192100
2019-05-10,12.800000,12.930000,12.790000,12.840000,12.840000,18828900
2019-05-13,13.140000,13.190000,12.640000,12.680000,12.680000,38790700
2019-05-14,12.840000,12.950000,12.810000,12.870000,12.870000,20288200
2019-05-15,12.770000,13.010000,12.760000,12.970000,12.970000,22020300
2019-05-16,13.100000,13.240000,13.080000,13.140000,13.140000,19661900
2019-05-17,13.160000,13.260000,13.030000,13.080000,13.080000,23587700
2019-05-20,13.120000,13.220000,13.030000,13.150000,13.150000,21460900
2019-05-21,13.110000,13.170000,13.050000,13.130000,13.130000,14720100
2019-05-22,12.990000,13.050000,12.690000,12.740000,12.740000,27554600
2019-05-23,12.370000,12.370000,11.920000,12.090000,12.090000,45571600
2019-05-24,12.220000,12.240000,11.950000,12.230000,12.230000,21527100
2019-05-28,12.370000,12.370000,12.200000,12.230000,12.230000,23403900
2019-05-29,12.030000,12.280000,11.830000,12.240000,12.240000,36105900
2019-05-30,12.280000,12.290000,11.720000,11.760000,11.760000,29508700
2019-05-31,11.450000,11.540000,11.040000,11.100000,11.100000,40319600
2019-06-03,11.300000,11.320000,10.960000,10.990000,10.990000,33152800
2019-06-04,11.070000,11.190000,10.950000,11.160000,11.160000,22474900
2019-06-05,11.010000,11.020000,10.530000,10.770000,10.770000,41599300
2019-06-06,10.740000,11.090000,10.650000,11.060000,11.060000,31594800
2019-06-07,10.970000,11.300000,10.950000,11.230000,11.230000,26155200
2019-06-10,11.230000,11.350000,11.040000,11.110000,11.110000,23493000
2019-06-11,11.190000,11.220000,11.040000,11.110000,11.110000,18884900
2019-06-12,10.880000,10.900000,10.570000,10.640000,10.640000,35024300
2019-06-13,11.070000,11.080000,10.810000,10.880000,10.880000,34928400
2019-06-14,10.920000,11.040000,10.860000,10.940000,10.940000,25730900
2019-06-17,10.850000,10.950000,10.750000,10.810000,10.810000,31522900
2019-06-18,10.990000,11.310000,10.960000,11.250000,11.250000,36092800
2019-06-19,11.140000,11.340000,11.100000,11.330000,11.330000,41157500
2019-06-20,11.690000,11.900000,11.630000,11.850000,11.850000,46579600
2019-06-21,11.860000,11.980000,11.850000,11.970000,11.970000,24575800
2019-06-24,11.950000,12.040000,11.770000,12.010000,12.010000,26632000
2019-06-25,12.040000,12.110000,11.940000,12.000000,12.000000,23169700
2019-06-26,12.290000,12.430000,12.250000,12.290000,12.290000,35059500
2019-06-27,12.290000,12.390000,12.260000,12.290000,12.290000,26439100
2019-06-28,12.330000,12.350000,11.980000,12.040000,12.040000,28856800
2019-07-01,12.440000,12.450000,12.110000,12.280000,12.280000,31351300
2019-07-02,12.210000,12.210000,11.640000,11.700000,11.700000,49314300
2019-07-03,11.810000,11.860000,11.650000,11.770000,11.770000,19690200
2019-07-05,11.860000,11.990000,11.820000,11.950000,11.950000,22706000
2019-07-08,12.000000,12.130000,11.910000,11.930000,11.930000,25158400
2019-07-09,11.980000,12.050000,11.920000,12.040000,12.040000,14655900
2019-07-10,12.330000,12.570000,12.300000,12.530000,12.530000,33507900
2019-07-11,12.570000,12.630000,12.480000,12.550000,12.550000,17841500
2019-07-12,12.510000,12.580000,12.440000,12.520000,12.520000,14913500
2019-07-15,12.600000,12.610000,12.290000,12.300000,12.300000,21738200
2019-07-16,12.370000,12.470000,11.860000,12.070000,12.070000,36001100
2019-07-17,12.110000,12.110000,11.740000,11.750000,11.750000,30197000
2019-07-18,11.790000,11.800000,11.370000,11.560000,11.560000,38600500
2019-07-19,11.570000,11.690000,11.430000,11.670000,11.670000,25108300
2019-07-22,11.620000,11.710000,11.580000,11.680000,11.680000,23995700
2019-07-23,11.680000,11.820000,11.590000,11.810000,11.810000,17881000
2019-07-24,11.810000,11.950000,11.470000,11.590000,11.590000,34924000
2019-07-25,11.730000,11.770000,11.580000,11.600000,11.600000,19892200
2019-07-26,11.640000,11.710000,11.550000,11.650000,11.650000,17256400
2019-07-29,11.770000,11.840000,11.590000,11.820000,11.820000,22699600
2019-07-30,11.840000,12.100000,11.820000,12.080000,12.080000,21740000
2019-07-31,12.150000,12.200000,12.000000,12.040000,12.040000,27900100
2019-08-01,11.870000,11.880000,11.120000,11.310000,11.310000,57634600
2019-08-02,11.590000,11.600000,11.440000,11.480000,11.480000,37578000
2019-08-05,11.310000,11.540000,11.290000,11.370000,11.370000,47151800
2019-08-06,11.430000,11.440000,11.090000,11.140000,11.140000,30273900
2019-08-07,10.810000,10.890000,10.490000,10.840000,10.840000,54104200
2019-08-08,10.860000,10.990000,10.790000,10.960000,10.960000,23546600
2019-08-09,11.220000,11.380000,11.200000,11.280000,11.280000,28973800
2019-08-12,11.370000,11.440000,11.260000,11.360000,11.360000,24138800
2019-08-13,11.330000,11.930000,11.310000,11.870000,11.870000,47692300
2019-08-14,11.460000,11.520000,11.230000,11.440000,11.440000,41846300
2019-08-15,11.300000,11.420000,11.220000,11.350000,11.350000,29894200
2019-08-16,11.380000,11.440000,11.280000,11.400000,11.400000,23472500
2019-08-19,11.600000,11.710000,11.500000,11.660000,11.660000,24390300
2019-08-20,11.590000,11.740000,11.470000,11.630000,11.630000,24638400
2019-08-21,11.840000,11.870000,11.550000,11.610000,11.610000,24096400
2019-08-22,11.660000,11.700000,11.410000,11.530000,11.530000,21790400
2019-08-23,11.230000,11.390000,11.080000,11.190000,11.190000,34055900
2019-08-26,11.440000,11.490000,11.140000,11.180000,11.180000,26066500
2019-08-27,11.240000,11.460000,11.170000,11.420000,11.420000,24561400
2019-08-28,11.720000,11.790000,11.550000,11.640000,11.640000,30389800
2019-08-29,11.650000,11.830000,11.650000,11.780000,11.780000,22765400
2019-08-30,11.740000,11.760000,11.350000,11.460000,11.460000,30548700
2019-09-03,11.090000,11.270000,10.990000,11.220000,11.220000,28065100
2019-09-04,11.530000,11.770000,11.520000,11.710000,11.710000,29123800
2019-09-05,11.800000,12.010000,11.650000,11.700000,11.700000,27286500
2019-09-06,11.460000,11.850000,11.410000,11.770000,11.770000,22340200
2019-09-09,11.920000,12.100000,11.900000,12.080000,12.080000,23403000
2019-09-10,12.110000,12.230000,11.900000,11.980000,11.980000,25565600
2019-09-11,11.990000,12.050000,11.580000,11.680000,11.680000,38325400
2019-09-12,11.320000,11.520000,11.280000,11.470000,11.470000,35739200
2019-09-13,11.490000,11.530000,11.380000,11.440000,11.440000,14074400
2019-09-16,12.490000,13.160000,12.450000,12.830000,12.830000,81020000
2019-09-17,12.930000,12.930000,12.150000,12.290000,12.290000,98631100
2019-09-18,12.130000,12.270000,12.010000,12.100000,12.100000,34544100
2019-09-19,12.220000,12.290000,12.110000,12.190000,12.190000,30330900
2019-09-20,12.230000,12.320000,12.080000,12.200000,12.200000,24076900
2019-09-23,12.140000,12.240000,12.040000,12.210000,12.210000,20463500
2019-09-24,12.120000,12.150000,11.860000,11.900000,11.900000,29414300
2019-09-25,11.660000,11.820000,11.600000,11.800000,11.800000,21599400
2019-09-26,11.680000,11.820000,11.560000,11.800000,11.800000,20969800
2019-09-27,11.570000,11.840000,11.550000,11.660000,11.660000,25720400
2019-09-30,11.510000,11.600000,11.260000,11.340000,11.340000,25184100
2019-10-01,11.390000,11.430000,11.070000,11.190000,11.190000,26259300
2019-10-02,11.200000,11.200000,10.890000,10.980000,10.980000,28385200
2019-10-03,10.830000,10.980000,10.640000,10.930000,10.930000,29361000
2019-10-04,11.070000,11.140000,10.860000,11.040000,11.040000,27946700
2019-10-07,11.140000,11.280000,10.980000,11.040000,11.040000,20082200
2019-10-08,10.870000,11.020000,10.820000,10.890000,10.890000,24391300
2019-10-09,11.180000,11.210000,10.930000,10.990000,10.990000,23799400
2019-10-10,11.110000,11.220000,11.050000,11.190000,11.190000,21070900
2019-10-11,11.240000,11.460000,11.240000,11.420000,11.420000,36778600
2019-10-14,11.160000,11.220000,11.030000,11.180000,11.180000,23710900
2019-10-15,11.150000,11.230000,11.010000,11.060000,11.060000,24905900
2019-10-16,11.010000,11.230000,11.010000,11.140000,11.140000,20282600
2019-10-17,11.070000,11.310000,11.010000,11.280000,11.280000,17582000
2019-10-18,11.340000,11.390000,11.150000,11.220000,11.220000,19961000
2019-10-21,11.050000,11.220000,11.040000,11.210000,11.210000,17579600
2019-10-22,11.310000,11.440000,11.240000,11.340000,11.340000,22071800
2019-10-23,11.280000,11.700000,11.270000,11.650000,11.650000,25746300
2019-10-24,11.700000,11.790000,11.680000,11.730000,11.730000,16134800
2019-10-25,11.710000,11.840000,11.610000,11.830000,11.830000,16512800
2019-10-28,11.840000,11.880000,11.600000,11.650000,11.650000,18973100
2019-10-29,11.440000,11.670000,11.420000,11.580000,11.580000,17586000
2019-10-30,11.570000,11.570000,11.360000,11.470000,11.470000,23960800
2019-10-31,11.390000,11.400000,11.210000,11.300000,11.300000,22113000
2019-11-01,11.450000,11.760000,11.440000,11.690000,11.690000,26235800
2019-11-04,11.930000,11.990000,11.780000,11.810000,11.810000,24344400
2019-11-05,11.920000,12.010000,11.910000,11.930000,11.930000,16771100
2019-11-06,11.960000,12.080000,11.720000,11.810000,11.810000,34027100
2019-11-07,11.980000,12.080000,11.860000,11.880000,11.880000,26066800
2019-11-08,11.730000,12.000000,11.640000,11.990000,11.990000,24063200
2019-11-11,11.790000,11.980000,11.770000,11.890000,11.890000,17791800
2019-11-12,11.960000,12.020000,11.810000,11.870000,11.870000,17394400
2019-11-13,11.800000,12.020000,11.800000,11.960000,11.960000,22444800
2019-11-14,12.040000,12.060000,11.850000,11.910000,11.910000,20375700
2019-11-15,11.870000,12.130000,11.870000,12.080000,12.080000,17641400
2019-11-18,11.980000,12.010000,11.830000,11.900000,11.900000,25071700
2019-11-19,11.710000,11.740000,11.520000,11.570000,11.570000,28831500
2019-11-20,11.680000,11.980000,11.620000,11.900000,11.900000,38347100
2019-11-21,12.060000,12.250000,12.040000,12.200000,12.200000,26991000
2019-11-22,12.200000,12.210000,12.010000,12.110000,12.110000,17898300
2019-11-25,12.030000,12.140000,11.970000,12.110000,12.110000,18793500
2019-11-26,12.170000,12.230000,12.080000,12.190000,12.190000,16453400
2019-11-27,12.160000,12.220000,12.020000,12.140000,12.140000,15076800
2019-11-29,11.930000,11.940000,11.540000,11.620000,11.620000,26762300
2019-12-02,11.780000,11.810000,11.620000,11.670000,11.670000,13929500
2019-12-03,11.670000,11.860000,11.590000,11.760000,11.760000,23235700
2019-12-04,12.060000,12.250000,12.050000,12.190000,12.190000,29362700
2019-12-05,12.310000,12.350000,12.150000,12.190000,12.190000,23796600
2019-12-06,12.130000,12.500000,12.120000,12.320000,12.320000,21012500
2019-12-09,12.250000,12.380000,12.250000,12.330000,12.330000,12696800
2019-12-10,12.310000,12.430000,12.270000,12.390000,12.390000,10273500
2019-12-11,12.330000,12.370000,12.140000,12.300000,12.300000,15346600
2019-12-12,12.300000,12.470000,12.300000,12.370000,12.370000,22300000
2019-12-13,12.410000,12.630000,12.390000,12.490000,12.490000,17101100
2019-12-16,12.580000,12.620000,12.560000,12.590000,12.590000,6413300
2019-12-17,12.650000,12.760000,12.650000,12.720000,12.720000,11952600
2019-12-18,12.660000,12.790000,12.620000,12.740000,12.740000,11866700
2019-12-19,12.750000,12.850000,12.710000,12.780000,12.780000,7676600
2019-12-20,12.720000,12.720000,12.560000,12.630000,12.630000,11434700
2019-12-23,12.610000,12.720000,12.590000,12.700000,12.700000,7452800
2019-12-24,12.730000,12.790000,12.730000,12.770000,12.770000,3453900
2019-12-26,12.820000,12.940000,12.820000,12.890000,12.890000,7053500
2019-12-27,12.920000,12.960000,12.820000,12.910000,12.910000,9103900
2019-12-30,13.010000,13.020000,12.790000,12.890000,12.890000,8971700
2019-12-31,12.710000,12.960000,12.690000,12.810000,12.810000,11605300
2020-01-02,12.800000,12.850000,12.700000,12.810000,12.810000,12509100
2020-01-03,13.270000,13.320000,13.030000,13.180000,13.180000,34603600
2020-01-06,13.300000,13.320000,13.120000,13.160000,13.160000,20787300
2020-01-07,13.100000,13.180000,13.010000,13.130000,13.130000,13936600
2020-01-08,13.060000,13.070000,12.390000,12.660000,12.660000,55347400
2020-01-09,12.450000,12.540000,12.290000,12.490000,12.490000,27515600
2020-01-10,12.430000,12.480000,12.340000,12.410000,12.410000,16134000
2020-01-13,12.310000,12.310000,12.160000,12.200000,12.200000,22868200
2020-01-14,12.270000,12.320000,12.200000,12.280000,12.280000,18693700
2020-01-15,12.200000,12.220000,12.050000,12.180000,12.180000,15054100
2020-01-16,12.200000,12.360000,12.200000,12.290000,12.290000,15686500
2020-01-17,12.330000,12.370000,12.240000,12.330000,12.330000,17766100
2020-01-21,12.220000,12.340000,12.210000,12.240000,12.240000,13677100
2020-01-22,12.030000,12.040000,11.880000,11.900000,11.900000,25571700
2020-01-23,11.600000,11.710000,11.500000,11.660000,11.660000,30868200
2020-01-24,11.490000,11.500000,11.310000,11.430000,11.430000,24408200
2020-01-27,11.110000,11.240000,11.020000,11.100000,11.100000,25140700
2020-01-28,11.160000,11.320000,11.110000,11.250000,11.250000,24389600
2020-01-29,11.280000,11.290000,11.090000,11.160000,11.160000,21763800
2020-01-30,10.930000,11.090000,10.850000,11.080000,11.080000,29517200
2020-01-31,10.880000,10.980000,10.700000,10.840000,10.840000,32415600
2020-02-03,10.750000,10.840000,10.480000,10.490000,10.490000,40468900
2020-02-04,10.680000,10.700000,10.400000,10.440000,10.440000,41515400
2020-02-05,10.750000,10.890000,10.590000,10.700000,10.700000,40714800
2020-02-06,10.640000,10.770000,10.550000,10.740000,10.740000,25998700
2020-02-07,10.600000,10.720000,10.540000,10.580000,10.580000,20887700
2020-02-10,10.480000,10.560000,10.380000,10.420000,10.420000,22607400
2020-02-11,10.630000,10.640000,10.450000,10.500000,10.500000,24936200
2020-02-12,10.820000,10.860000,10.710000,10.810000,10.810000,31416200
2020-02-13,10.820000,10.900000,10.750000,10.840000,10.840000,28876700
2020-02-14,10.960000,10.990000,10.840000,10.950000,10.950000,24457000
2020-02-18,10.760000,10.950000,10.750000,10.950000,10.950000,21410900
2020-02-19,11.130000,11.230000,11.020000,11.180000,11.180000,25100600
2020-02-20,11.310000,11.430000,11.250000,11.280000,11.280000,27381800
2020-02-21,11.080000,11.210000,10.990000,11.160000,11.160000,27045200
2020-02-24,10.630000,10.810000,10.550000,10.740000,10.740000,37552700
2020-02-25,10.760000,10.780000,10.400000,10.400000,10.400000,33073900
2020-02-26,10.380000,10.550000,10.110000,10.190000,10.190000,39309900
2020-02-27,9.720000,9.990000,9.600000,9.780000,9.780000,49865700
2020-02-28,9.420000,9.500000,9.170000,9.450000,9.450000,43000200
2020-03-02,9.670000,9.920000,9.540000,9.920000,9.920000,41386900
2020-03-03,10.000000,10.180000,9.720000,9.890000,9.890000,51266000
2020-03-04,10.110000,10.130000,9.760000,9.860000,9.860000,46349700
2020-03-05,9.810000,9.850000,9.550000,9.610000,9.610000,33122600
2020-03-06,9.260000,9.270000,8.600000,8.730000,8.730000,78256400
2020-03-09,6.820000,7.300000,6.500000,6.520000,6.520000,154148500
2020-03-10,7.090000,7.330000,6.860000,7.240000,7.240000,85587000
2020-03-11,7.020000,7.090000,6.840000,6.940000,6.940000,65101500
2020-03-12,6.440000,6.800000,6.430000,6.540000,6.540000,93042600
2020-03-13,6.890000,7.130000,6.540000,6.960000,6.960000,78657700
2020-03-16,6.090000,6.380000,5.820000,6.050000,6.050000,76132900
2020-03-17,6.040000,6.150000,5.630000,5.710000,5.710000,68945200
2020-03-18,5.060000,5.180000,4.290000,4.710000,4.710000,190114000
2020-03-19,4.790000,5.670000,4.600000,5.370000,5.370000,130136000
2020-03-20,5.280000,5.370000,4.680000,4.940000,4.940000,146541700